"rok","kategorie","typ_tezby","hodnota","jednotka","zdroj"
1990,"Nahodilá těžba podle příčin vzniku","živelná",8701,"tis. m3 b.k.","ČSÚ"
1991,"Nahodilá těžba podle příčin vzniku","živelná",5309,"tis. m3 b.k.","ČSÚ"
1992,"Nahodilá těžba podle příčin vzniku","živelná",2803,"tis. m3 b.k.","ČSÚ"
1993,"Nahodilá těžba podle příčin vzniku","živelná",3935,"tis. m3 b.k.","ČSÚ"
1994,"Nahodilá těžba podle příčin vzniku","živelná",4355,"tis. m3 b.k.","ČSÚ"
1995,"Nahodilá těžba podle příčin vzniku","živelná",2766,"tis. m3 b.k.","ČSÚ"
1996,"Nahodilá těžba podle příčin vzniku","živelná",4058,"tis. m3 b.k.","ČSÚ"
1997,"Nahodilá těžba podle příčin vzniku","živelná",3982,"tis. m3 b.k.","ČSÚ"
1998,"Nahodilá těžba podle příčin vzniku","živelná",2592,"tis. m3 b.k.","ČSÚ"
1999,"Nahodilá těžba podle příčin vzniku","živelná",2743,"tis. m3 b.k.","ČSÚ"
2000,"Nahodilá těžba podle příčin vzniku","živelná",2388,"tis. m3 b.k.","ČSÚ"
2001,"Nahodilá těžba podle příčin vzniku","živelná",1488,"tis. m3 b.k.","ČSÚ"
2002,"Nahodilá těžba podle příčin vzniku","živelná",3380,"tis. m3 b.k.","ČSÚ"
2003,"Nahodilá těžba podle příčin vzniku","živelná",6116,"tis. m3 b.k.","ČSÚ"
2004,"Nahodilá těžba podle příčin vzniku","živelná",2764,"tis. m3 b.k.","ČSÚ"
2005,"Nahodilá těžba podle příčin vzniku","živelná",2303,"tis. m3 b.k.","ČSÚ"
2006,"Nahodilá těžba podle příčin vzniku","živelná",5973,"tis. m3 b.k.","ČSÚ"
2007,"Nahodilá těžba podle příčin vzniku","živelná",12652,"tis. m3 b.k.","ČSÚ"
2008,"Nahodilá těžba podle příčin vzniku","živelná",7601,"tis. m3 b.k.","ČSÚ"
2009,"Nahodilá těžba podle příčin vzniku","živelná",3246,"tis. m3 b.k.","ČSÚ"
2010,"Nahodilá těžba podle příčin vzniku","živelná",4075,"tis. m3 b.k.","ČSÚ"
2011,"Nahodilá těžba podle příčin vzniku","živelná",2170,"tis. m3 b.k.","ČSÚ"
2012,"Nahodilá těžba podle příčin vzniku","živelná",1700,"tis. m3 b.k.","ČSÚ"
2013,"Nahodilá těžba podle příčin vzniku","živelná",2277,"tis. m3 b.k.","ČSÚ"
2014,"Nahodilá těžba podle příčin vzniku","živelná",2455,"tis. m3 b.k.","ČSÚ"
2015,"Nahodilá těžba podle příčin vzniku","živelná",4388,"tis. m3 b.k.","ČSÚ"
2016,"Nahodilá těžba podle příčin vzniku","živelná",2636,"tis. m3 b.k.","ČSÚ"
2017,"Nahodilá těžba podle příčin vzniku","živelná",4345,"tis. m3 b.k.","ČSÚ"
2018,"Nahodilá těžba podle příčin vzniku","živelná",8378,"tis. m3 b.k.","ČSÚ"
2019,"Nahodilá těžba podle příčin vzniku","živelná",5879,"tis. m3 b.k.","ČSÚ"
1990,"Nahodilá těžba podle příčin vzniku","hmyzová",178,"tis. m3 b.k.","ČSÚ"
1991,"Nahodilá těžba podle příčin vzniku","hmyzová",257,"tis. m3 b.k.","ČSÚ"
1992,"Nahodilá těžba podle příčin vzniku","hmyzová",837,"tis. m3 b.k.","ČSÚ"
1993,"Nahodilá těžba podle příčin vzniku","hmyzová",2097,"tis. m3 b.k.","ČSÚ"
1994,"Nahodilá těžba podle příčin vzniku","hmyzová",2211,"tis. m3 b.k.","ČSÚ"
1995,"Nahodilá těžba podle příčin vzniku","hmyzová",2376,"tis. m3 b.k.","ČSÚ"
1996,"Nahodilá těžba podle příčin vzniku","hmyzová",1145,"tis. m3 b.k.","ČSÚ"
1997,"Nahodilá těžba podle příčin vzniku","hmyzová",546,"tis. m3 b.k.","ČSÚ"
1998,"Nahodilá těžba podle příčin vzniku","hmyzová",408,"tis. m3 b.k.","ČSÚ"
1999,"Nahodilá těžba podle příčin vzniku","hmyzová",327,"tis. m3 b.k.","ČSÚ"
2000,"Nahodilá těžba podle příčin vzniku","hmyzová",320,"tis. m3 b.k.","ČSÚ"
2001,"Nahodilá těžba podle příčin vzniku","hmyzová",231,"tis. m3 b.k.","ČSÚ"
2002,"Nahodilá těžba podle příčin vzniku","hmyzová",292,"tis. m3 b.k.","ČSÚ"
2003,"Nahodilá těžba podle příčin vzniku","hmyzová",1258,"tis. m3 b.k.","ČSÚ"
2004,"Nahodilá těžba podle příčin vzniku","hmyzová",1268,"tis. m3 b.k.","ČSÚ"
2005,"Nahodilá těžba podle příčin vzniku","hmyzová",983,"tis. m3 b.k.","ČSÚ"
2006,"Nahodilá těžba podle příčin vzniku","hmyzová",1139,"tis. m3 b.k.","ČSÚ"
2007,"Nahodilá těžba podle příčin vzniku","hmyzová",1556,"tis. m3 b.k.","ČSÚ"
2008,"Nahodilá těžba podle příčin vzniku","hmyzová",2315,"tis. m3 b.k.","ČSÚ"
2009,"Nahodilá těžba podle příčin vzniku","hmyzová",2624,"tis. m3 b.k.","ČSÚ"
2010,"Nahodilá těžba podle příčin vzniku","hmyzová",1788,"tis. m3 b.k.","ČSÚ"
2011,"Nahodilá těžba podle příčin vzniku","hmyzová",1054,"tis. m3 b.k.","ČSÚ"
2012,"Nahodilá těžba podle příčin vzniku","hmyzová",786,"tis. m3 b.k.","ČSÚ"
2013,"Nahodilá těžba podle příčin vzniku","hmyzová",1052,"tis. m3 b.k.","ČSÚ"
2014,"Nahodilá těžba podle příčin vzniku","hmyzová",1133,"tis. m3 b.k.","ČSÚ"
2015,"Nahodilá těžba podle příčin vzniku","hmyzová",2309,"tis. m3 b.k.","ČSÚ"
2016,"Nahodilá těžba podle příčin vzniku","hmyzová",4420,"tis. m3 b.k.","ČSÚ"
2017,"Nahodilá těžba podle příčin vzniku","hmyzová",5853,"tis. m3 b.k.","ČSÚ"
2018,"Nahodilá těžba podle příčin vzniku","hmyzová",13059,"tis. m3 b.k.","ČSÚ"
2019,"Nahodilá těžba podle příčin vzniku","hmyzová",22780,"tis. m3 b.k.","ČSÚ"
1990,"Nahodilá těžba podle příčin vzniku","exhalační",289,"tis. m3 b.k.","ČSÚ"
1991,"Nahodilá těžba podle příčin vzniku","exhalační",290,"tis. m3 b.k.","ČSÚ"
1992,"Nahodilá těžba podle příčin vzniku","exhalační",286,"tis. m3 b.k.","ČSÚ"
1993,"Nahodilá těžba podle příčin vzniku","exhalační",323,"tis. m3 b.k.","ČSÚ"
1994,"Nahodilá těžba podle příčin vzniku","exhalační",276,"tis. m3 b.k.","ČSÚ"
1995,"Nahodilá těžba podle příčin vzniku","exhalační",303,"tis. m3 b.k.","ČSÚ"
1996,"Nahodilá těžba podle příčin vzniku","exhalační",192,"tis. m3 b.k.","ČSÚ"
1997,"Nahodilá těžba podle příčin vzniku","exhalační",212,"tis. m3 b.k.","ČSÚ"
1998,"Nahodilá těžba podle příčin vzniku","exhalační",171,"tis. m3 b.k.","ČSÚ"
1999,"Nahodilá těžba podle příčin vzniku","exhalační",126,"tis. m3 b.k.","ČSÚ"
2000,"Nahodilá těžba podle příčin vzniku","exhalační",78,"tis. m3 b.k.","ČSÚ"
2001,"Nahodilá těžba podle příčin vzniku","exhalační",56,"tis. m3 b.k.","ČSÚ"
2002,"Nahodilá těžba podle příčin vzniku","exhalační",34,"tis. m3 b.k.","ČSÚ"
2003,"Nahodilá těžba podle příčin vzniku","exhalační",60,"tis. m3 b.k.","ČSÚ"
2004,"Nahodilá těžba podle příčin vzniku","exhalační",45,"tis. m3 b.k.","ČSÚ"
2005,"Nahodilá těžba podle příčin vzniku","exhalační",38,"tis. m3 b.k.","ČSÚ"
2006,"Nahodilá těžba podle příčin vzniku","exhalační",26,"tis. m3 b.k.","ČSÚ"
2007,"Nahodilá těžba podle příčin vzniku","exhalační",39,"tis. m3 b.k.","ČSÚ"
2008,"Nahodilá těžba podle příčin vzniku","exhalační",35,"tis. m3 b.k.","ČSÚ"
2009,"Nahodilá těžba podle příčin vzniku","exhalační",28,"tis. m3 b.k.","ČSÚ"
2010,"Nahodilá těžba podle příčin vzniku","exhalační",27,"tis. m3 b.k.","ČSÚ"
2011,"Nahodilá těžba podle příčin vzniku","exhalační",21,"tis. m3 b.k.","ČSÚ"
2012,"Nahodilá těžba podle příčin vzniku","exhalační",22,"tis. m3 b.k.","ČSÚ"
2013,"Nahodilá těžba podle příčin vzniku","exhalační",22,"tis. m3 b.k.","ČSÚ"
2014,"Nahodilá těžba podle příčin vzniku","exhalační",19,"tis. m3 b.k.","ČSÚ"
2015,"Nahodilá těžba podle příčin vzniku","exhalační",28,"tis. m3 b.k.","ČSÚ"
2016,"Nahodilá těžba podle příčin vzniku","exhalační",29,"tis. m3 b.k.","ČSÚ"
2017,"Nahodilá těžba podle příčin vzniku","exhalační",20,"tis. m3 b.k.","ČSÚ"
2018,"Nahodilá těžba podle příčin vzniku","exhalační",19,"tis. m3 b.k.","ČSÚ"
2019,"Nahodilá těžba podle příčin vzniku","exhalační",20,"tis. m3 b.k.","ČSÚ"
1990,"Nahodilá těžba podle příčin vzniku","ostatní",654,"tis. m3 b.k.","ČSÚ"
1991,"Nahodilá těžba podle příčin vzniku","ostatní",1083,"tis. m3 b.k.","ČSÚ"
1992,"Nahodilá těžba podle příčin vzniku","ostatní",1474,"tis. m3 b.k.","ČSÚ"
1993,"Nahodilá těžba podle příčin vzniku","ostatní",1745,"tis. m3 b.k.","ČSÚ"
1994,"Nahodilá těžba podle příčin vzniku","ostatní",2440,"tis. m3 b.k.","ČSÚ"
1995,"Nahodilá těžba podle příčin vzniku","ostatní",2410,"tis. m3 b.k.","ČSÚ"
1996,"Nahodilá těžba podle příčin vzniku","ostatní",1460,"tis. m3 b.k.","ČSÚ"
1997,"Nahodilá těžba podle příčin vzniku","ostatní",787,"tis. m3 b.k.","ČSÚ"
1998,"Nahodilá těžba podle příčin vzniku","ostatní",669,"tis. m3 b.k.","ČSÚ"
1999,"Nahodilá těžba podle příčin vzniku","ostatní",540,"tis. m3 b.k.","ČSÚ"
2000,"Nahodilá těžba podle příčin vzniku","ostatní",502,"tis. m3 b.k.","ČSÚ"
2001,"Nahodilá těžba podle příčin vzniku","ostatní",598,"tis. m3 b.k.","ČSÚ"
2002,"Nahodilá těžba podle příčin vzniku","ostatní",507,"tis. m3 b.k.","ČSÚ"
2003,"Nahodilá těžba podle příčin vzniku","ostatní",760,"tis. m3 b.k.","ČSÚ"
2004,"Nahodilá těžba podle příčin vzniku","ostatní",1302,"tis. m3 b.k.","ČSÚ"
2005,"Nahodilá těžba podle příčin vzniku","ostatní",1215,"tis. m3 b.k.","ČSÚ"
2006,"Nahodilá těžba podle příčin vzniku","ostatní",889,"tis. m3 b.k.","ČSÚ"
2007,"Nahodilá těžba podle příčin vzniku","ostatní",638,"tis. m3 b.k.","ČSÚ"
2008,"Nahodilá těžba podle příčin vzniku","ostatní",798,"tis. m3 b.k.","ČSÚ"
2009,"Nahodilá těžba podle příčin vzniku","ostatní",730,"tis. m3 b.k.","ČSÚ"
2010,"Nahodilá těžba podle příčin vzniku","ostatní",569,"tis. m3 b.k.","ČSÚ"
2011,"Nahodilá těžba podle příčin vzniku","ostatní",575,"tis. m3 b.k.","ČSÚ"
2012,"Nahodilá těžba podle příčin vzniku","ostatní",729,"tis. m3 b.k.","ČSÚ"
2013,"Nahodilá těžba podle příčin vzniku","ostatní",897,"tis. m3 b.k.","ČSÚ"
2014,"Nahodilá těžba podle příčin vzniku","ostatní",920,"tis. m3 b.k.","ČSÚ"
2015,"Nahodilá těžba podle příčin vzniku","ostatní",1428,"tis. m3 b.k.","ČSÚ"
2016,"Nahodilá těžba podle příčin vzniku","ostatní",2314,"tis. m3 b.k.","ČSÚ"
2017,"Nahodilá těžba podle příčin vzniku","ostatní",1525,"tis. m3 b.k.","ČSÚ"
2018,"Nahodilá těžba podle příčin vzniku","ostatní",1557,"tis. m3 b.k.","ČSÚ"
2019,"Nahodilá těžba podle příčin vzniku","ostatní",2266,"tis. m3 b.k.","ČSÚ"
1990,"Nahodilá těžba podle příčin vzniku","celkem",9822,"tis. m3 b.k.","ČSÚ"
1991,"Nahodilá těžba podle příčin vzniku","celkem",6939,"tis. m3 b.k.","ČSÚ"
1992,"Nahodilá těžba podle příčin vzniku","celkem",5400,"tis. m3 b.k.","ČSÚ"
1993,"Nahodilá těžba podle příčin vzniku","celkem",8100,"tis. m3 b.k.","ČSÚ"
1994,"Nahodilá těžba podle příčin vzniku","celkem",9282,"tis. m3 b.k.","ČSÚ"
1995,"Nahodilá těžba podle příčin vzniku","celkem",7855,"tis. m3 b.k.","ČSÚ"
1996,"Nahodilá těžba podle příčin vzniku","celkem",6855,"tis. m3 b.k.","ČSÚ"
1997,"Nahodilá těžba podle příčin vzniku","celkem",5527,"tis. m3 b.k.","ČSÚ"
1998,"Nahodilá těžba podle příčin vzniku","celkem",3840,"tis. m3 b.k.","ČSÚ"
1999,"Nahodilá těžba podle příčin vzniku","celkem",3736,"tis. m3 b.k.","ČSÚ"
2000,"Nahodilá těžba podle příčin vzniku","celkem",3288,"tis. m3 b.k.","ČSÚ"
2001,"Nahodilá těžba podle příčin vzniku","celkem",2373,"tis. m3 b.k.","ČSÚ"
2002,"Nahodilá těžba podle příčin vzniku","celkem",4213,"tis. m3 b.k.","ČSÚ"
2003,"Nahodilá těžba podle příčin vzniku","celkem",8194,"tis. m3 b.k.","ČSÚ"
2004,"Nahodilá těžba podle příčin vzniku","celkem",5379,"tis. m3 b.k.","ČSÚ"
2005,"Nahodilá těžba podle příčin vzniku","celkem",4539,"tis. m3 b.k.","ČSÚ"
2006,"Nahodilá těžba podle příčin vzniku","celkem",8027,"tis. m3 b.k.","ČSÚ"
2007,"Nahodilá těžba podle příčin vzniku","celkem",14885,"tis. m3 b.k.","ČSÚ"
2008,"Nahodilá těžba podle příčin vzniku","celkem",10749,"tis. m3 b.k.","ČSÚ"
2009,"Nahodilá těžba podle příčin vzniku","celkem",6628,"tis. m3 b.k.","ČSÚ"
2010,"Nahodilá těžba podle příčin vzniku","celkem",6459,"tis. m3 b.k.","ČSÚ"
2011,"Nahodilá těžba podle příčin vzniku","celkem",3820,"tis. m3 b.k.","ČSÚ"
2012,"Nahodilá těžba podle příčin vzniku","celkem",3237,"tis. m3 b.k.","ČSÚ"
2013,"Nahodilá těžba podle příčin vzniku","celkem",4248,"tis. m3 b.k.","ČSÚ"
2014,"Nahodilá těžba podle příčin vzniku","celkem",4527,"tis. m3 b.k.","ČSÚ"
2015,"Nahodilá těžba podle příčin vzniku","celkem",8153,"tis. m3 b.k.","ČSÚ"
2016,"Nahodilá těžba podle příčin vzniku","celkem",9399,"tis. m3 b.k.","ČSÚ"
2017,"Nahodilá těžba podle příčin vzniku","celkem",11743,"tis. m3 b.k.","ČSÚ"
2018,"Nahodilá těžba podle příčin vzniku","celkem",23013,"tis. m3 b.k.","ČSÚ"
2019,"Nahodilá těžba podle příčin vzniku","celkem",30945,"tis. m3 b.k.","ČSÚ"
